{
  "parent": "block/cube",
  "textures": {
    "particle": "dve3demo:block/dveblock",
    "down": "dve3demo:block/dveblock",
    "up": "dve3demo:block/dveblock",
    "east": "dve3demo:block/dveblock",
    "west": "dve3demo:block/dveblock",
    "north": "dve3demo:block/dveblock",
    "south": "dve3demo:block/dveblock"
  }
}